[
  {
    "title": "cross body bag",
    "price": "EUR 780.00",
    "src": "./assets/images/item-1.jpg"
  },
  {
    "title": "mia mule",
    "price": "EUR 545.00",
    "src": "./assets/images/item-2.jpg"
  },
  {
    "title": "monotone slipper",
    "price": "EUR 440.00",
    "src": "./assets/images/item-3.jpg"
  },
  {
    "title": "mia mule",
    "price": "EUR 545.00",
    "src": "./assets/images/item-3.jpg"
  },
  {
    "title": "monotone slipper",
    "price": "EUR 440.00",
    "src": "./assets/images/item-2.jpg"
  },
  {
    "title": "mia mule",
    "price": "EUR 545.00",
    "src": "./assets/images/item-1.jpg"
  },
  {
    "title": "monotone slipper",
    "price": "EUR 440.00",
    "src": "./assets/images/item-2.jpg"
  }
]