<?xml version="1.0" encoding="UTF-8"?>
<svg width="8px" height="10px" viewBox="0 0 8 10" version="1.1" xmlns="http://www.w3.org/2000/svg" xmlns:xlink="http://www.w3.org/1999/xlink">
    <!-- Generator: Sketch 50.2 (55047) - http://www.bohemiancoding.com/sketch -->
    <title>Fill 1</title>
    <desc>Created with Sketch.</desc>
    <defs></defs>
    <g id="05__COLLECTIONS" stroke="none" stroke-width="1" fill="none" fill-rule="evenodd">
        <g id="COLLECTIONS__GRID__desk" transform="translate(-956.000000, -4586.000000)" fill="#FFFFFF">
            <g id="COPY-V1" transform="translate(653.000000, 4408.000000)">
                <path d="M303.614187,178.055523 C303.341088,177.897799 303,178.094897 303,178.410117 L303,187.230789 C303,187.546009 303.341088,187.743107 303.614187,187.585383 L310.795347,183.175047 C311.068218,183.017551 311.068218,182.623354 310.795347,182.465859 L303.614187,178.055523 Z" id="Fill-1"></path>
            </g>
        </g>
    </g>
</svg>