<?xml version="1.0" encoding="utf-8"?>
<!-- Generator: Adobe Illustrator 22.0.1, SVG Export Plug-In . SVG Version: 6.00 Build 0)  -->
<svg version="1.1" id="Livello_1" xmlns="http://www.w3.org/2000/svg" xmlns:xlink="http://www.w3.org/1999/xlink" x="0px" y="0px"
	 viewBox="0 0 40 40" style="enable-background:new 0 0 40 40;" xml:space="preserve">
<style type="text/css">
	.st0{fill:none;}
</style>
<path id="youtube" class="st0" d="M15,26V13.76577c3.91541,2.04548,7.80649,4.07617,11.74812,6.13501
	C22.81793,21.94054,18.92637,23.9612,15,26 M37.6074,11.51312c-0.45253-1.9691-2.05998-3.4198-3.99551-3.63604
	C29.02985,7.3644,24.39155,7.36249,19.77422,7.3644c-4.6178-0.00191-9.25754,0-13.84006,0.51268
	c-1.93314,0.21624-3.54108,1.66694-3.9917,3.63604c-0.64422,2.80066-0.65185,5.8591-0.65185,8.74378s0,5.94455,0.6447,8.74521
	c0.45062,1.96719,2.05808,3.4198,3.99361,3.63604c4.58204,0.51125,9.21987,0.5146,13.83767,0.51125
	c4.61971,0.00334,9.25754,0,13.83815-0.51125c1.93505-0.21624,3.54251-1.66885,3.99551-3.63604
	c0.64422-2.80066,0.64613-5.86053,0.64613-8.74521S38.25209,14.31378,37.6074,11.51312"/>
</svg>
